{
  "hosting": {
    "public": "public",
    "ignore": [
      "firebase.json",
      "**/.*",
      "**/node_modules/**"
    ]
  },
  "remoteconfig": {
    "template": "remoteconfig.template.json"
  },
  "functions": {
    "source": "functions"
  }
}
